^V:\UCHEBA\2SEM\INFVOLKOV\PROJECT\4 ЗАДАЧИ\MASS\MASS\DEBUG\MASS.EXE.INTERMEDIATE.MANIFEST
V:\UCHEBA\2SEM\INFVOLKOV\PROJECT\4 задачи\MASS\DEBUG\MASS.EXE
^V:\UCHEBA\2SEM\INFVOLKOV\PROJECT\ЗАДАЧА 6\MASS\MASS\DEBUG\MASS.EXE.INTERMEDIATE.MANIFEST
V:\UCHEBA\2SEM\INFVOLKOV\PROJECT\Задача 6\MASS\DEBUG\MASS.EXE
^C:\USERS\GOLUB\DOCUMENTS\OLD_PC\UCHEBA\2SEM\INFVOLKOV\PROJECT\ЗАДАЧА 6\MASS\MASS\DEBUG\MASS.EXE.INTERMEDIATE.MANIFEST
C:\USERS\GOLUB\DOCUMENTS\OLD_PC\UCHEBA\2SEM\INFVOLKOV\PROJECT\Задача 6\MASS\DEBUG\MASS.EXE
