^\\MAC\HOME\DESKTOP\МТУСИ\УЧЕБА\ЯЗЫКИ ПРОГРАММИРОВАНИЯ\ЛАБ 7\OOP\OOP\APP.RC
\\MAC\HOME\DESKTOP\МТУСИ\Учеба\Языки программирования\Лаб 7\OOP\OOP\RESOURCE.H
\\MAC\HOME\DESKTOP\МТУСИ\Учеба\Языки программирования\Лаб 7\OOP\OOP\APP.ICO
^\\MAC\HOME\DESKTOP\МТУСИ\УЧЕБА\1 КУРС 2 СЕМЕСТР\ЯЗЫКИ ПРОГРАММИРОВАНИЯ\ЛАБ 7\OOP\OOP\APP.RC
\\MAC\HOME\DESKTOP\МТУСИ\Учеба\1 курс 2 семестр\Языки программирования\Лаб 7\OOP\OOP\RESOURCE.H
\\MAC\HOME\DESKTOP\МТУСИ\Учеба\1 курс 2 семестр\Языки программирования\Лаб 7\OOP\OOP\APP.ICO
^C:\USERS\GOLUB\DOWNLOADS\OOP\OOP\OOP\APP.RC
C:\USERS\GOLUB\DOWNLOADS\OOP\OOP\OOP\RESOURCE.H
C:\USERS\GOLUB\DOWNLOADS\OOP\OOP\OOP\APP.ICO
