^V:\УЧЕБА\2 CЕМЕСТР\ИНФОРМАТИКА ВОЛКОВ\ПРОЕКТЫ С ЗАНЯТИЙ\ЗАДАЧА 4\KONVERT\KONVERT\DEBUG\KONVERT.EXE.INTERMEDIATE.MANIFEST
/nologo /verbose /outputresource:"V:\учеба\2 cеместр\Информатика Волков\Проекты с занятий\Задача 4\Konvert\Debug\Konvert.exe;#1" /manifest Debug\Konvert.exe.intermediate.manifest
^C:\USERS\VIC7OR\DESKTOP\НОВАЯ ПАПКА\УЧЕБА\2 CЕМЕСТР\ИНФОРМАТИКА ВОЛКОВ\ПРОЕКТЫ С ЗАНЯТИЙ\ЗАДАЧА 4\KONVERT\KONVERT\DEBUG\KONVERT.EXE.INTERMEDIATE.MANIFEST
/nologo /verbose /outputresource:"C:\Users\Vic7oR\Desktop\Новая папка\учеба\2 cеместр\Информатика Волков\Проекты с занятий\Задача 4\Konvert\Debug\Konvert.exe;#1" /manifest Debug\Konvert.exe.intermediate.manifest
^V:\UCHEBA\2SEM\INFVOLKOV\PROJECT\ZADACHA4\KONVERT\KONVERT\DEBUG\KONVERT.EXE.INTERMEDIATE.MANIFEST
/nologo /verbose /outputresource:"V:\ucheba\2sem\InfVolkov\project\zadacha4\Konvert\Debug\Konvert.exe;#1" /manifest Debug\Konvert.exe.intermediate.manifest
^C:\USERS\GOLUB\DOCUMENTS\OLD_PC\UCHEBA\2SEM\INFVOLKOV\PROJECT\ZADACHA4\KONVERT\KONVERT\DEBUG\KONVERT.EXE.INTERMEDIATE.MANIFEST
/nologo /verbose /outputresource:"C:\Users\golub\Documents\old_pc\ucheba\2sem\InfVolkov\project\zadacha4\Konvert\Debug\Konvert.exe;#1" /manifest Debug\Konvert.exe.intermediate.manifest
